/Users/Anvar/IdeaProjects/LabyrinthGame/app/src/main/java/classes/Coordinates.java
/Users/Anvar/IdeaProjects/LabyrinthGame/app/src/main/java/graphics/Squares.java
/Users/Anvar/IdeaProjects/LabyrinthGame/app/src/main/java/classes/Game.java
/Users/Anvar/IdeaProjects/LabyrinthGame/app/src/main/java/classes/Server.java
/Users/Anvar/IdeaProjects/LabyrinthGame/app/src/main/java/graphics/BorderCell.java
/Users/Anvar/IdeaProjects/LabyrinthGame/app/src/main/java/classes/Client.java
/Users/Anvar/IdeaProjects/LabyrinthGame/app/src/main/java/classes/ServerHello.java
/Users/Anvar/IdeaProjects/LabyrinthGame/app/src/main/java/graphics/StartGame.java
/Users/Anvar/IdeaProjects/LabyrinthGame/app/src/main/java/classes/ClientHello.java
/Users/Anvar/IdeaProjects/LabyrinthGame/app/src/main/java/classes/Board.java
/Users/Anvar/IdeaProjects/LabyrinthGame/app/src/main/java/graphics/GameFrame.java
